…
```r
gapminder%>%
  select(year, life_exp)%>%
  filter(year %in% c("1952", "2007"))%>%
  group_by(year)%>%
  arrange(year)
```

```
## # A tibble: 284 x 2
## # Groups:   year [2]
##     year life_exp
##    <int>    <dbl>
##  1  1952     28.8
##  2  1952     55.2
##  3  1952     43.1
##  4  1952     30.0
##  5  1952     62.5
##  6  1952     69.1
##  7  1952     66.8
##  8  1952     50.9
##  9  1952     37.5
## 10  1952     68  
## # ... with 274 more rows
```
…
```
## `summarise()` has grouped output by 'continent'. You can override using the `.groups` argument.
```

```r
summary_gapminder
```

```
## # A tibble: 60 x 5
## # Groups:   continent [5]
##    continent  year min_life_exp mean_life_exp max_life_exp
##    <fct>     <int>        <dbl>         <dbl>        <dbl>
##  1 Africa     1952         30            39.1         52.7
##  2 Africa     1957         31.6          41.3         58.1
##  3 Africa     1962         32.8          43.3         60.2
##  4 Africa     1967         34.1          45.3         61.6
##  5 Africa     1972         35.4          47.5         64.3
##  6 Africa     1977         36.8          49.6         67.1
##  7 Africa     1982         38.4          51.6         69.9
##  8 Africa     1987         39.9          53.3         71.9
##  9 Africa     1992         23.6          53.6         73.6
## 10 Africa     1997         36.1          53.6         74.8
## # ... with 50 more rows
```
…
```
## quartiles
##       [241,1.2e+03]  (1.2e+03,3.53e+03] (3.53e+03,9.33e+03] (9.33e+03,1.14e+05] 
##                 426                 426                 426                 426
```


```r
gapminder<-gapminder%>%
  mutate(gdp_percap_category=case_when(gdp_percap>241.2 & gdp_percap<1202.1~"low", gdp_percap>=1202.1 & gdp_percap<3531.8~"medium",gdp_percap>=3531.8 & gdp_percap<113523.1~"high" ))
gapminder
```

```
## # A tibble: 1,704 x 7
##    country     continent  year life_exp      pop gdp_percap gdp_percap_category
##    <fct>       <fct>     <int>    <dbl>    <int>      <dbl> <chr>              
##  1 Afghanistan Asia       1952     28.8  8425333       779. low                
##  2 Afghanistan Asia       1957     30.3  9240934       821. low                
##  3 Afghanistan Asia       1962     32.0 10267083       853. low                
##  4 Afghanistan Asia       1967     34.0 11537966       836. low                
##  5 Afghanistan Asia       1972     36.1 13079460       740. low                
##  6 Afghanistan Asia       1977     38.4 14880372       786. low                
##  7 Afghanistan Asia       1982     39.9 12881816       978. low                
##  8 Afghanistan Asia       1987     40.8 13867957       852. low                
##  9 Afghanistan Asia       1992     41.7 16317921       649. low                
## 10 Afghanistan Asia       1997     41.8 22227415       635. low                
## # ... with 1,694 more rows
```
…
This was found identifying the max and min population for each year (based on the year), taking the difference to find population growth. 



```r
gapminder%>%
  select(country, year, pop)%>%
  group_by(country)%>%
  summarise(pop_growth=(max(pop)-min(pop)))%>%
  arrange(desc(pop_growth))
```

```
## # A tibble: 142 x 2
##    country       pop_growth
##    <fct>              <int>
##  1 China          762419569
##  2 India          738396331
##  3 United States  143586947
##  4 Indonesia      141495000
##  5 Brazil         133408087
##  6 Pakistan       127924057
##  7 Bangladesh     103561480
##  8 Nigeria        101912068
##  9 Mexico          78556574
## 10 Philippines     68638596
## # ... with 132 more rows
```
…
