…
```
## 
## i Use `spec()` to retrieve the full column specification for this data.
## i Specify the column types or set `show_col_types = FALSE` to quiet this message.
```

```r
income
```

```
## # A tibble: 193 x 242
##    country `1800` `1801` `1802` `1803` `1804` `1805` `1806` `1807` `1808` `1809`
##    <chr>    <dbl>  <dbl>  <dbl>  <dbl>  <dbl>  <dbl>  <dbl>  <dbl>  <dbl>  <dbl>
##  1 Afghan~    603    603    603    603    603    603    603    603    603    603
##  2 Albania    667    667    667    667    667    668    668    668    668    668
##  3 Algeria    715    716    717    718    719    720    721    722    723    724
##  4 Andorra   1200   1200   1200   1200   1210   1210   1210   1210   1220   1220
##  5 Angola     618    620    623    626    628    631    634    637    640    642
##  6 Antigu~    757    757    757    757    757    757    757    758    758    758
##  7 Argent~   1640   1640   1650   1650   1660   1660   1670   1680   1680   1690
##  8 Armenia    514    514    514    514    514    514    514    514    514    514
##  9 Austra~    817    822    826    831    836    841    845    850    855    860
## 10 Austria   1850   1850   1860   1870   1880   1880   1890   1900   1910   1920
## # ... with 183 more rows, and 231 more variables: 1810 <dbl>, 1811 <dbl>,
## #   1812 <dbl>, 1813 <dbl>, 1814 <dbl>, 1815 <dbl>, 1816 <dbl>, 1817 <dbl>,
## #   1818 <dbl>, 1819 <dbl>, 1820 <dbl>, 1821 <dbl>, 1822 <dbl>, 1823 <dbl>,
## #   1824 <dbl>, 1825 <dbl>, 1826 <dbl>, 1827 <dbl>, 1828 <dbl>, 1829 <dbl>,
## #   1830 <dbl>, 1831 <dbl>, 1832 <dbl>, 1833 <dbl>, 1834 <dbl>, 1835 <dbl>,
## #   1836 <dbl>, 1837 <dbl>, 1838 <dbl>, 1839 <dbl>, 1840 <dbl>, 1841 <dbl>,
## #   1842 <dbl>, 1843 <dbl>, 1844 <dbl>, 1845 <dbl>, 1846 <dbl>, 1847 <dbl>, ...
```
…
```
## 
## i Use `spec()` to retrieve the full column specification for this data.
## i Specify the column types or set `show_col_types = FALSE` to quiet this message.
```

```r
life_exp
```

```
## # A tibble: 187 x 302
##    country `1800` `1801` `1802` `1803` `1804` `1805` `1806` `1807` `1808` `1809`
##    <chr>    <dbl>  <dbl>  <dbl>  <dbl>  <dbl>  <dbl>  <dbl>  <dbl>  <dbl>  <dbl>
##  1 Afghan~   28.2   28.2   28.2   28.2   28.2   28.2   28.1   28.1   28.1   28.1
##  2 Albania   35.4   35.4   35.4   35.4   35.4   35.4   35.4   35.4   35.4   35.4
##  3 Algeria   28.8   28.8   28.8   28.8   28.8   28.8   28.8   28.8   28.8   28.8
##  4 Andorra   NA     NA     NA     NA     NA     NA     NA     NA     NA     NA  
##  5 Angola    27     27     27     27     27     27     27     27     27     27  
##  6 Antigu~   33.5   33.5   33.5   33.5   33.5   33.5   33.5   33.5   33.5   33.5
##  7 Argent~   33.2   33.2   33.2   33.2   33.2   33.2   33.2   33.2   33.2   33.2
##  8 Armenia   34     34     34     34     34     34     34     34     34     34  
##  9 Austra~   34     34     34     34     34     34     34     34     34     34  
## 10 Austria   34.4   34.4   34.4   34.4   34.4   34.4   34.4   34.4   34.4   34.4
## # ... with 177 more rows, and 291 more variables: 1810 <dbl>, 1811 <dbl>,
## #   1812 <dbl>, 1813 <dbl>, 1814 <dbl>, 1815 <dbl>, 1816 <dbl>, 1817 <dbl>,
## #   1818 <dbl>, 1819 <dbl>, 1820 <dbl>, 1821 <dbl>, 1822 <dbl>, 1823 <dbl>,
## #   1824 <dbl>, 1825 <dbl>, 1826 <dbl>, 1827 <dbl>, 1828 <dbl>, 1829 <dbl>,
## #   1830 <dbl>, 1831 <dbl>, 1832 <dbl>, 1833 <dbl>, 1834 <dbl>, 1835 <dbl>,
## #   1836 <dbl>, 1837 <dbl>, 1838 <dbl>, 1839 <dbl>, 1840 <dbl>, 1841 <dbl>,
## #   1842 <dbl>, 1843 <dbl>, 1844 <dbl>, 1845 <dbl>, 1846 <dbl>, 1847 <dbl>, ...
```



1. (3 points) Once you have an idea of the structure of the data, please make each data set tidy (hint: think back to pivots) and store them as new objects. You will need both the original (wide) and tidy (long) data!  

_Population_

```r
pop_long<- pop%>%
  pivot_longer(-country, names_to="year", values_to="population")
pop_long
```

```
## # A tibble: 58,695 x 3
##    country     year  population
##    <chr>       <chr>      <dbl>
##  1 Afghanistan 1800     3280000
##  2 Afghanistan 1801     3280000
##  3 Afghanistan 1802     3280000
##  4 Afghanistan 1803     3280000
##  5 Afghanistan 1804     3280000
##  6 Afghanistan 1805     3280000
##  7 Afghanistan 1806     3280000
##  8 Afghanistan 1807     3280000
##  9 Afghanistan 1808     3280000
## 10 Afghanistan 1809     3280000
## # ... with 58,685 more rows
```

_Economic_

```r
income_long<- income%>%
  pivot_longer(-country, names_to="year", values_to="gdp_per_capita")
income_long
```

```
## # A tibble: 46,513 x 3
##    country     year  gdp_per_capita
##    <chr>       <chr>          <dbl>
##  1 Afghanistan 1800             603
##  2 Afghanistan 1801             603
##  3 Afghanistan 1802             603
##  4 Afghanistan 1803             603
##  5 Afghanistan 1804             603
##  6 Afghanistan 1805             603
##  7 Afghanistan 1806             603
##  8 Afghanistan 1807             603
##  9 Afghanistan 1808             603
## 10 Afghanistan 1809             603
## # ... with 46,503 more rows
```
_Life Expectancy_

```r
life_exp_long<- life_exp%>%
  pivot_longer(-country, names_to="year", values_to="life_expectancy")
life_exp_long
```

```
## # A tibble: 56,287 x 3
##    country     year  life_expectancy
##    <chr>       <chr>           <dbl>
##  1 Afghanistan 1800             28.2
##  2 Afghanistan 1801             28.2
##  3 Afghanistan 1802             28.2
##  4 Afghanistan 1803             28.2
##  5 Afghanistan 1804             28.2
##  6 Afghanistan 1805             28.2
##  7 Afghanistan 1806             28.1
##  8 Afghanistan 1807             28.1
##  9 Afghanistan 1808             28.1
## 10 Afghanistan 1809             28.1
## # ... with 56,277 more rows
```
…
```
## # A tibble: 1 x 1
##   number_countries_sampled
##                      <int>
## 1                      195
```

```r
pop_long%>%
  group_by(country)%>%
  summarise(n=n_distinct(country))
```

```
## # A tibble: 195 x 2
##    country                 n
##    <chr>               <int>
##  1 Afghanistan             1
##  2 Albania                 1
##  3 Algeria                 1
##  4 Andorra                 1
##  5 Angola                  1
##  6 Antigua and Barbuda     1
##  7 Argentina               1
##  8 Armenia                 1
##  9 Australia               1
## 10 Austria                 1
## # ... with 185 more rows
```
…
```
## # A tibble: 1 x 1
##   number_countries_sampled
##                      <int>
## 1                      193
```

```r
income_long%>%
  group_by(country)%>%
  summarise(n=n_distinct(country))
```

```
## # A tibble: 193 x 2
##    country                 n
##    <chr>               <int>
##  1 Afghanistan             1
##  2 Albania                 1
##  3 Algeria                 1
##  4 Andorra                 1
##  5 Angola                  1
##  6 Antigua and Barbuda     1
##  7 Argentina               1
##  8 Armenia                 1
##  9 Australia               1
## 10 Austria                 1
## # ... with 183 more rows
```
…
```r
life_exp_long%>%
  group_by(country)%>%
  summarise(n=n_distinct(country))
```

```
## # A tibble: 187 x 2
##    country                 n
##    <chr>               <int>
##  1 Afghanistan             1
##  2 Albania                 1
##  3 Algeria                 1
##  4 Andorra                 1
##  5 Angola                  1
##  6 Antigua and Barbuda     1
##  7 Argentina               1
##  8 Armenia                 1
##  9 Australia               1
## 10 Austria                 1
## # ... with 177 more rows
```
…
Andorra (79.77)
Central African Republic (41. 766)


```r
life_exp_long%>%
  filter(!is.na(life_expectancy),between(year, 1920,2020))%>%
  group_by(country)%>%
  summarise(mean_life_expectancy=mean(life_expectancy))%>%
  arrange(desc(mean_life_expectancy))
```

```
## # A tibble: 187 x 2
##    country     mean_life_expectancy
##    <chr>                      <dbl>
##  1 Andorra                     79.8
##  2 Sweden                      73.5
##  3 Norway                      73.2
##  4 Netherlands                 73.0
##  5 Dominica                    73.0
##  6 Iceland                     72.9
##  7 Australia                   72.7
##  8 Switzerland                 72.7
##  9 Denmark                     71.9
## 10 Canada                      71.8
## # ... with 177 more rows
```


4. (3 points) Although we can see which country has the highest life expectancy for the past 100 years, we don't know which countries have changed the most. What are the top 5 countries that have experienced the biggest improvement in life expectancy between 1920-2020?  

```r
life_exp_long%>%
  filter(!is.na(life_expectancy), year %in% c(1920,2020))%>%
  group_by(country)%>%
  summarise(life_exp_growth=(max(life_expectancy)-min(life_expectancy)))%>%
  arrange(desc(life_exp_growth))
```

```
## # A tibble: 184 x 2
##    country         life_exp_growth
##    <chr>                     <dbl>
##  1 Kuwait                     56.8
##  2 Kyrgyz Republic            56.5
##  3 Turkmenistan               55.3
##  4 South Korea                55  
##  5 Tajikistan                 54.3
##  6 Nicaragua                  54.2
##  7 Kazakhstan                 53.8
##  8 Russia                     52.2
##  9 Israel                     51.4
## 10 Iran                       51.2
## # ... with 174 more rows
```
…
```r
income_100<-income_long%>%
  filter(between(year, 1920,2020))
```


```r
gapminder_join <- inner_join(life_expectancy_100, population_100, by= c("country", "year"))
gapminder_join <- inner_join(gapminder_join, income_100, by= c("country", "year"))
gapminder_join
```

```
## # A tibble: 18,887 x 5
##    country     year  life_expectancy population gdp_per_capita
##    <chr>       <chr>           <dbl>      <dbl>          <dbl>
##  1 Afghanistan 1920             30.6   10600000           1490
##  2 Afghanistan 1921             30.7   10500000           1520
##  3 Afghanistan 1922             30.8   10300000           1550
##  4 Afghanistan 1923             30.8    9710000           1570
##  5 Afghanistan 1924             30.9    9200000           1600
##  6 Afghanistan 1925             31      8720000           1630
##  7 Afghanistan 1926             31      8260000           1650
##  8 Afghanistan 1927             31.1    7830000           1680
##  9 Afghanistan 1928             31.1    7420000           1710
## 10 Afghanistan 1929             31.2    7100000           1740
## # ... with 18,877 more rows
```
…
