…
The normalized value will help us standardize the buglevels across each beach. This allows us to see which has the bug level amount at a certain year. 


```r
#makes a new column of the highest buglevel observed at each site
beachbugs_w_max <- beachbugs_long %>% 
  group_by(site) %>% 
  mutate(max_buglevel = max(buglevels, na.rm=T)) %>% 
  arrange(site)
beachbugs_w_max
```

```
## # A tibble: 66 x 4
## # Groups:   site [11]
##     year site         buglevels max_buglevel
##    <dbl> <chr>            <dbl>        <dbl>
##  1  2013 Bondi Beach       32.2         32.2
##  2  2014 Bondi Beach       11.1         32.2
##  3  2015 Bondi Beach       14.3         32.2
##  4  2016 Bondi Beach       19.4         32.2
##  5  2017 Bondi Beach       13.2         32.2
##  6  2018 Bondi Beach       22.9         32.2
##  7  2013 Bronte Beach      26.8         61.3
##  8  2014 Bronte Beach      17.5         61.3
##  9  2015 Bronte Beach      23.6         61.3
## 10  2016 Bronte Beach      61.3         61.3
## # ... with 56 more rows
```

```r
#makes a new table where the buglevels are normalized to the max_buglevel
beachbugs_normalized <- beachbugs_w_max %>% 
  group_by(site) %>% 
  mutate(norm_buglevel = buglevels/max_buglevel) %>% 
  arrange(site,year) %>%
  select(site, year, norm_buglevel)   # you dont have to select(), but I think its a clearer looking table
beachbugs_normalized
```

```
## # A tibble: 66 x 3
## # Groups:   site [11]
##    site          year norm_buglevel
##    <chr>        <dbl>         <dbl>
##  1 Bondi Beach   2013         1    
##  2 Bondi Beach   2014         0.344
##  3 Bondi Beach   2015         0.445
##  4 Bondi Beach   2016         0.601
##  5 Bondi Beach   2017         0.409
##  6 Bondi Beach   2018         0.710
##  7 Bronte Beach  2013         0.436
##  8 Bronte Beach  2014         0.285
##  9 Bronte Beach  2015         0.385
## 10 Bronte Beach  2016         1    
## # ... with 56 more rows
```
…
### 10. Choose one intersection of the venn diagram that is interesting to you. Use dplyr to find the names of the superheros in that intersection. 




```r
superhero_info%>%

  filter(alignment== "bad")%>%
  filter(eye_color=="red")%>%
  select(name)
```

```
## # A tibble: 23 x 1
##    name        
##    <chr>       
##  1 Amazo       
##  2 Apocalypse  
##  3 Black Abbott
##  4 Blackout    
##  5 Darkseid    
##  6 Demogoblin  
##  7 Doomsday    
##  8 Evilhawk    
##  9 Fixer       
## 10 Killer Croc 
## # ... with 13 more rows
```
…
```r
power_frequency <- superhero_powers %>% 
  select(-hero_names) %>%
  summarise_all(~(sum(.))) %>%
  pivot_longer(everything(), names_to = "power", values_to = "freq")
power_frequency
```

```
## # A tibble: 167 x 2
##    power                  freq
##    <chr>                 <int>
##  1 agility                 242
##  2 accelerated_healing     178
##  3 lantern_power_ring       11
##  4 dimensional_awareness    25
##  5 cold_resistance          47
##  6 durability              257
##  7 stealth                 126
##  8 energy_absorption        77
##  9 flight                  212
## 10 danger_sense             30
## # ... with 157 more rows
```
…
```r
power_quantity <- superhero_powers %>% 
  pivot_longer(-hero_names, names_to = "power", values_to = "yes_or_no") %>% 
  group_by(hero_names) %>% 
  mutate(sum_powers = sum(yes_or_no, na.rm=T)) %>%
  arrange(desc(sum_powers), hero_names, desc(yes_or_no))
power_quantity
```

```
## # A tibble: 111,389 x 4
## # Groups:   hero_names [667]
##    hero_names power                 yes_or_no sum_powers
##    <chr>      <chr>                 <lgl>          <int>
##  1 Spectre    agility               TRUE              49
##  2 Spectre    accelerated_healing   TRUE              49
##  3 Spectre    dimensional_awareness TRUE              49
##  4 Spectre    stealth               TRUE              49
##  5 Spectre    energy_absorption     TRUE              49
##  6 Spectre    flight                TRUE              49
##  7 Spectre    marksmanship          TRUE              49
##  8 Spectre    longevity             TRUE              49
##  9 Spectre    intelligence          TRUE              49
## 10 Spectre    super_strength        TRUE              49
## # ... with 111,379 more rows
```

```r
#we have to trim down to only the top 50, or it will crowd the image!
power_quantity <- power_quantity %>% 
  ungroup %>%
  distinct(hero_names, sum_powers) %>%
  slice_max(sum_powers, n = 50)
power_quantity
```

```
## # A tibble: 51 x 2
##    hero_names        sum_powers
##    <chr>                  <int>
##  1 Spectre                   49
##  2 Amazo                     44
##  3 Living Tribunal           35
##  4 Martian Manhunter         35
##  5 Man of Miracles           34
##  6 Captain Marvel            33
##  7 T-X                       33
##  8 Galactus                  32
##  9 T-1000                    32
## 10 Mister Mxyzptlk           31
## # ... with 41 more rows
```
…
