Data Visualization: Venn Diagrams & Word Clouds
…
What are the 26 non-flying birds?

homerange%>%
  filter(taxon == "birds")%>%
  filter(locomotion != "flying")%>%
  select(common.name)

## # A tibble: 26 x 1
##    common.name          
##    <chr>                
##  1 gadwall              
##  2 northern brown kiwi  
##  3 oystercatcher        
##  4 greater roadrunner   
##  5 banded ground-cuckoo 
##  6 caracara             
##  7 red-throated caracara
##  8 hazel grouse         
##  9 sage grouse          
## 10 dusky grouse         
## # ... with 16 more rows
…
Practice

in the homework, we will make word clouds with the super hero data.

For now, practice word clouds by making a could of all the different families in the class reptilia. If they dont fit, try tinkering the scale_size_area(max_size =   )

make the count table:

hr_reptilia_count<-homerange%>%
  count(family)
hr_reptilia_count

## # A tibble: 151 x 2
##    family             n
##    <chr>          <int>
##  1 acanthuridae       3
##  2 accipitridae      16
##  3 acrocephalisae     1
##  4 aegithalidae       1
##  5 agamidae           1
##  6 ailuridae          1
##  7 alaudidae          1
##  8 anatidae           1
##  9 anguillidae        1
## 10 antilocapridae     1
## # ... with 141 more rows
…
