…
```r
naniar::miss_var_summary(gabon)
```

```
## # A tibble: 26 x 3
##    variable       n_miss pct_miss
##    <chr>           <int>    <dbl>
##  1 transect_id         0        0
##  2 distance            0        0
##  3 hunt_cat            0        0
##  4 num_households      0        0
##  5 land_use            0        0
##  6 veg_rich            0        0
##  7 veg_stems           0        0
##  8 veg_liana           0        0
##  9 veg_dbh             0        0
## 10 veg_canopy          0        0
## # ... with 16 more rows
```
…
